{
    "items": [{
        "cpro": "ALCA",
        "claves": "Programa Cantania; Cantata; Canto coral",
        "centro": "22002673",
        "label": "\u201cPROGRAMA CANTANIA 2015 - JACA \u201d",
        "link": "wyHkLyYYNPE",
        "type": "rec",
        "id": 1
    }, {
        "cpro": "BP",
        "claves": "Inclusi\u00f3n social, \nDiversidad funcional",
        "centro": "50018131",
        "label": "Semillas de inclusi\u00f3n",
        "link": "IiWC4Dvm2Gk",
        "type": "rec",
        "id": 2
    }, {
        "cpro": "_BP",
        "claves": "Autodeterminaci\u00f3n; Principio de inclusi\u00f3n; Principio de participaci\u00f3n; Principio de habilitaci\u00f3n; Ayudas de acceso; Modelo de apoyo",
        "centro": "50018131",
        "label": "Cosas de la edad",
        "link": "w1qjGicBb20",
        "type": "rec",
        "id": 3
    }, {
        "cpro": "_BP",
        "claves": "Calidad de vida; Bienestar personal; Bienestar emocional",
        "centro": "50018131",
        "label": "Happy Piaget",
        "link": "2QzXdqiO3mA",
        "type": "rec",
        "id": 4
    }, {
        "cpro": "_BP",
        "claves": "Enfoque ecol\u00f3gico; Habilidades funcionales; Autodeterminaci\u00f3n; Principio de inclusi\u00f3n; Principio de participaci\u00f3n; Principio de habilitaci\u00f3n; Ayudas de acceso; Modelo de apoyo",
        "centro": "50018131",
        "label": "La fiesta de cumplea\u00f1os",
        "link": "Q9osa8HrZQs",
        "type": "rec",
        "id": 5
    }, {
        "cpro": "_BP",
        "claves": "Convivencia, buenas pr\u00e1cticas, respeto",
        "centro": "50001222",
        "label": "As\u00ed somos, as\u00ed convivimos",
        "link": "mZKw65Y9jGo",
        "type": "rec",
        "id": 6
    }, {
        "cpro": "IEPR",
        "claves": "Perros; proyecto palabras",
        "centro": "50018131",
        "label": "Ping\u00fces palabras con perros",
        "link": "PtakH0HvV14",
        "type": "rec",
        "id": 7
    }, {
        "cpro": "ALCE",
        "claves": "",
        "centro": "50017904",
        "label": "Coro escolar",
        "link": "bT2hXe4zEPs",
        "type": "rec",
        "id": 8
    }, {
        "cpro": "_AC",
        "claves": "",
        "centro": "50017874",
        "label": "Aprender a Convivir. Programa para la mejora de la Competencia Social en ni\u00f1os de 2\u00ba ciclo de Educaci\u00f3n Infantil.",
        "link": "6RpECkqdxZM",
        "type": "rec",
        "id": 9
    }, {
        "cpro": "IEBP",
        "claves": "BUENAS PR\u00c1CTICAS INNOVADORAS, INNOVACI\u00d3N, EDUCACI\u00d3N INFANTIL, FAMILIAS, TRABAJO EN GRUPO, REPRESENTACI\u00d3N DE CUENTOS, DIN\u00c1MICAS INNOVADORAS",
        "centro": "22010724",
        "label": "Color\u00edn Colorado, este cuento a\u00fan no se ha terminado",
        "link": "63CI5ztXcCo",
        "type": "rec",
        "id": 10
    }, {
        "cpro": "IEBP",
        "claves": "Revista, Competencia Ling\u00fc\u00edstica, Metodolog\u00eda activa, leer, escribir, Educaci\u00f3n Infantil , trabajo colaborativo.",
        "centro": "22002673",
        "label": "Pirueta",
        "link": "s0ay8oN2XrE",
        "type": "rec",
        "id": 11
    }, {
        "cpro": "_PIT1",
        "claves": "",
        "centro": "50001301",
        "label": "PIT 1",
        "link": "iwagbb4tUeg",
        "type": "rec",
        "id": 12
    }, {
        "cpro": "IEPR",
        "claves": "innovaci\u00f3n pedagogica,  sordera, experiencias pedagogicas y sordera, inteligencias y competencias",
        "centro": "50007376",
        "label": "Ni\u00f1os sordos",
        "link": "__nKoZsYgqw",
        "type": "rec",
        "id": 13
    }, {
        "cpro": "IEPR",
        "claves": "",
        "centro": "44004239",
        "label": "Haciendo camino",
        "link": "DqYFZP_eesM",
        "type": "rec",
        "id": 14
    }, {
        "cpro": "IEBP",
        "claves": "",
        "centro": "50017898",
        "label": "Los sonidos del Reino",
        "link": "",
        "type": "rec",
        "id": 15
    }, {
        "cpro": "IEPB",
        "claves": "",
        "centro": "22000721",
        "label": "Las Tic en el aula:Innovaci\u00f3n interacci\u00f3n",
        "link": "ZbgAcV5WoeU",
        "type": "rec",
        "id": 16
    }, {
        "cpro": "IEPR",
        "claves": "",
        "centro": "22002673",
        "label": "Nos preparamos para la vida",
        "link": "Yb_RnYKGLx4",
        "type": "rec",
        "id": 17
    }, {
        "cpro": "IEPR",
        "claves": "",
        "centro": "22002673",
        "label": "La sombra del drone",
        "link": "g7nkIJgjRQE",
        "type": "rec",
        "id": 18
    }, {
        "cpro": "IEPR",
        "claves": "",
        "centro": "50008770",
        "label": "Proyecto de Aikido en la resoluci\u00f3n de conflictos",
        "link": "5EXnrfkmHEE",
        "type": "rec",
        "id": 19
    }, {
        "cpro": "IEPR",
        "claves": "Competencias , cocina, bricolage, costura , educaci\u00f3n pr\u00e1ctica , metodolog\u00edas innovadoras",
        "centro": "22002673",
        "label": "Nos preparamos para la vida",
        "link": "Yb_RnYKGLx4",
        "type": "rec",
        "id": 20
    }, {
        "cpro": "PRDC",
        "claves": "DESARROLLO DE CAPACIDADES, VIOLENCIA DE G\u00c9NERO,",
        "centro": "50011847",
        "label": "Dos historias diferentes",
        "link": "J4lVWUrXD0A",
        "type": "rec",
        "id": 21
    }, {
        "cpro": "_BP",
        "claves": "Proyecto de Innovaci\u00f3n\nGrupos Interactivos\nTertulias Dial\u00f3gicas\nValores \nresoluci\u00f3n de conflictos\nAlumnos Ayudantes mediadores\nParticipaci\u00f3n de la Comunidad",
        "centro": "50008691",
        "label": "Proyecto Global \"Entre Todos\"",
        "link": "nk-1nVxYrzc",
        "type": "rec",
        "id": 22
    }, {
        "cpro": "IEBP",
        "claves": "Cine, cin\u00e9ma, lengua francesa, competencia comunicativa",
        "centro": "50018258",
        "label": "Le cinema des 5 ans",
        "link": "K89OBFxlyUs",
        "type": "rec",
        "id": 23
    }, {
        "cpro": "IEBP",
        "claves": "Inteligencias m\u00faltiples, cooperaci\u00f3n, buenas pr\u00e1cticas innovadoras, educaci\u00f3n infantil",
        "centro": "22001875",
        "label": "Pr\u00e1cticas Innovadoras en Educaci\u00f3n Infantil",
        "link": "cjLragDLUAw",
        "type": "rec",
        "id": 24
    }, {
        "cpro": "IEPR",
        "claves": "proyecto de Innovaci\u00f3n, Educaci\u00f3n F\u00edsica\n\n\n",
        "centro": "22002338",
        "label": "Pareja pedag\u00f3gica en el \u00e1rea de Educaci\u00f3n F\u00edsica",
        "link": "oEKHnY461hw",
        "type": "rec",
        "id": 25
    }, {
        "cpro": "IEPR",
        "claves": "LA COMPETENCIA MATEM\u00c1TICA EN INFANTIL Y PRIMARIA, TRABAJADA DE UNA\n\nMANERA L\u00daDICA, INNOVADORA, VIVENCIADA Y GLOBAL.",
        "centro": "50006311",
        "label": "PROBLEMAS EN EL PARA\u00cdSO: \u00a1UNA AVENTURA MATEM\u00c1TICA!",
        "link": "m_TjEAX_Tuw",
        "type": "rec",
        "id": 26
    }, {
        "cpro": "IEBP",
        "claves": "Huerto",
        "centro": "22005868",
        "label": "MI HUERTO ECOL\u00d3GICO",
        "link": "mHJsRlWMkyo",
        "type": "rec",
        "id": 27
    }, {
        "cpro": "IEPR",
        "claves": "TIC, CEIP San Miguel,  stop-motion, expresi\u00f3n oral, peri\u00f3dico escolar,\n\nblogs, innovaci\u00f3n educativa",
        "centro": "44002221",
        "label": "Mejora de la significatividad de la relaci\u00f3n de las TIC con las asignaturas",
        "link": "pBshI_uDqEQ",
        "type": "rec",
        "id": 28
    }, {
        "cpro": "IEPR",
        "claves": "Valoraci\u00f3n, geri\u00e1trica, cognitiva, enfermer\u00eda, TCAE, habilidades, ciclos, CFGM",
        "centro": "50006761",
        "label": "Valoraci\u00f3n cognitiva en poblaci\u00f3n geri\u00e1trica",
        "link": "-L-nxMDjBBE",
        "type": "rec",
        "id": 29
    }, {
        "cpro": "IEPR",
        "claves": "Intiligencias m\u00faltiples, biling\u00fcismo, proyecto de innovaci\u00f3n",
        "centro": "50018261",
        "label": "Nuestro pa\u00eds vecino, Francia",
        "link": "zYsOjWsK4Tw",
        "type": "rec",
        "id": 30
    }, {
        "cpro": "IEPR",
        "claves": "radio, proyecto de innovaci\u00f3n, competencia ling\u00fc\u00edstica, trabajo cooperativo, ",
        "centro": "50002329",
        "label": "SCHOOL RADIO",
        "link": "x7Wb5izKsco",
        "type": "rec",
        "id": 31
    }, {
        "cpro": "IEPR",
        "claves": "Innovaci\u00f3n,        creatividad,        saludable,        inclusivo,        cooperaci\u00f3n,        motivaci\u00f3n, google-app",
        "centro": "50009166",
        "label": "MADE IN BLECUA",
        "link": "KU1kXV4-c3w",
        "type": "rec",
        "id": 32
    }, {
        "cpro": "",
        "claves": "ED. INFANTIL, APRENDIZAJE, \nSERVICIO,TEATRO, TAREA, ABUELOS",
        "centro": "50006633",
        "label": "PASEN Y VEAN, LA FUNCI\u00d3N VA A COMENZAR",
        "link": "T_Wq2Pbems8",
        "type": "rec",
        "id": 33
    }, {
        "cpro": "",
        "claves": "",
        "centro": "50009129",
        "label": "PROYECTO CULTURAL DE CENTRO",
        "link": "Btej289ko2M",
        "type": "rec",
        "id": 34
    }, {
        "cpro": "IEGI",
        "claves": "Cinco Villas, grupos interactivos",
        "centro": "50009129",
        "label": "Proyecto de Innovaci\u00f3n Basado en Evidencias - Grupos Interactivos PIBE-GI\nActuaciones Educativas de \u00c9xito",
        "link": "YBxDxMwIesI",
        "type": "rec",
        "id": 35
    }, {
        "cpro": "IEPR",
        "claves": "innovaci\u00f3n, aikido, conflictos, filosof\u00eda, alegr\u00eda, confrontaci\u00f3n, paz, adaptaci\u00f3n, Tauste, Arba, proyecto",
        "centro": "50008770",
        "label": "Aplicaci\u00f3n de la filosof\u00eda y pr\u00e1ctica del  Aikido a la resoluci\u00f3n de conflictos en el aula",
        "link": "P1QNbVIzj8s",
        "type": "rec",
        "id": 36
    }, {
        "cpro": "PRDC",
        "claves": "Capacidades, taller, Ram\u00f3n y cajal",
        "centro": "22002508",
        "label": "Taller de capacidades",
        "link": "https://docs.google.com/file/d/0B_Jm8DOkHqDcUnoyVWRKVmstOEk/edit",
        "type": "rec",
        "id": 37
    }, {
        "cpro": "IEGI",
        "claves": "GRUPOS INTERACTIVOS, VOLUNTARIADO,  PR\u00c1CTICA INCLUSIVA. Proyecto de innovaci\u00f3n basado en evidencias grupos interactivos",
        "centro": "50008691",
        "label": "GRUPOS INTERACTIVOS: OTRA FORMA  DE APRENDER Y COMPARTIR",
        "link": "K1uPEOb5ViA",
        "type": "rec",
        "id": 38
    }, {
        "cpro": "_PAM",
        "claves": "INTELIGENCIA EMOCIONAL, COMPETENCIAS INTRAPERSONALES, COMPETENCIAS INTERPERSONALES, EMOCIONES,ECOLOG\u00cdA EMOCIONAL.",
        "centro": "50008691",
        "label": "APRENDER A SER PERSONAS (Proyecto de Inteligencia Emocional).",
        "link": "1fJNgM3gDcg",
        "type": "rec",
        "id": 39
    }, {
        "cpro": "IEBP",
        "claves": "INNOVACI\u00d3N, BUENAS PR\u00c1CTICAS EN EL PRIMER CICLO DE EDUCACI\u00d3N INFANTIL, PARTICIPACI\u00d3N \nDE LAS FAMILIAS, RECICLADO DE MATERIALES, CONSUMO RESPONSABLE.",
        "centro": "50018878",
        "label": "LOS ZAPATOS, MUCHO M\u00c1S QUE UN JUEGO",
        "link": "vVDop0g2V3c",
        "type": "rec",
        "id": 40
    }, {
        "cpro": "IEBP",
        "claves": "BOSQUE, OBJETOS DE USO COTIDIANO, RECICLADO, PARTICIPACI\u00d3N FAMILIAS, DIVERSIDAD, \nEXPERIMENTAR.",
        "centro": "50018878",
        "label": "ESCUELA INFANTIL MUNICIPAL \u201cEL BOSQUE\u201d",
        "link": "6FT2lvTJ90A",
        "type": "rec",
        "id": 41
    }, {
        "cpro": "PRDC",
        "claves": "DESARROLLO DE CAPACIDADES / ADC/ CEIP HISPANIDAD",
        "centro": "50010181",
        "label": "ADC_HISPANIDAD",
        "link": "wavp0nu3s0c",
        "type": "rec",
        "id": 42
    }, {
        "cpro": "PRDC",
        "claves": "Parque Goya, Desarrollo de capacidades",
        "centro": "50017072",
        "label": "Parque Goya piensa y crea",
        "link": "wj5vohG9FXM",
        "type": "rec",
        "id": 43
    }, {
        "cpro": "PRDC",
        "claves": "Capacidades, biblioteca",
        "centro": "50005781",
        "label": "Rap de la biblioteca",
        "link": "fV6Gxwuoe58",
        "type": "rec",
        "id": 44
    }, {
        "cpro": "ALAJ",
        "claves": "",
        "centro": "22004906",
        "label": "Ajedrez",
        "link": "KShlosPFblo",
        "type": "rec",
        "id": 45
    }, {
        "cpro": "IEGI",
        "claves": "GRUPOS INTERACTIVOS, PROYECTOS DE INNOVACI\u00d3N BASADOS EN EVIDENCIAS GRUPOS INTERACTIVOS, COMUNIDADES DE APRENDIZAJE, ACTUACIONES EDUCATIVAS DE \u00c9XITO, APRENDIZAJE DIAL\u00d3GICO, CONVIVENCIA, INTELIGENCIA CULTURAL",
        "centro": "44005062",
        "label": "INNOVANDO EN EL CRA MATARRANYA",
        "link": "-f-DPEfOAb0",
        "type": "rec",
        "id": 46
    }, {
        "cpro": "ALCA",
        "claves": "m\u00fasica, canto coral, concierto, art\u00edstica",
        "centro": "44005062",
        "label": "Cantania es nuestro CRA Matarranya",
        "link": "yHh3MnvTLuU",
        "type": "rec",
        "id": 47
    }, {
        "cpro": "ALAJ",
        "claves": "Pedro I, Barbastro, ajedrez, educaci\u00f3n",
        "centro": "50011847",
        "label": "Ajedrez",
        "link": "EaF1hgtEuMM",
        "type": "rec",
        "id": 48
    }, {
        "cpro": "ACCV",
        "claves": "",
        "centro": "50009129",
        "label": "Ciencia en los coles",
        "link": "wSx5adAI3W4",
        "type": "rec",
        "id": 49
    }, {
        "cpro": "ALCA",
        "claves": "",
        "centro": "50001799",
        "label": "Autoestima",
        "link": "XuftK_vFHlw",
        "type": "rec",
        "id": 50
    }, {
        "cpro": "IECM",
        "claves": "proyectos",
        "centro": "50004053",
        "label": "NUESTROS PROYECTOS",
        "link": "Eobv-0jw7Fw",
        "type": "rec",
        "id": 51
    }, {
        "cpro": "",
        "claves": "ASPACE, Atenci\u00f3n Temprana,  Centro Concertado, Colegio  Educaci\u00f3n Especial, Comunicaci\u00f3n  Alternativa, Discapacidad,  Estimulaci\u00f3n, Estimulaci\u00f3n Basal,  Estimulaci\u00f3n Precoz, Fisioterapia,  Logopedia, Par\u00e1lisis Cerebral,  Pluridiscapacidad, San Germ\u00e1n,  Sistemas Alternativos de  Comunicaci\u00f3n, Tecnolog\u00eda de  Apoyo.\n",
        "centro": "50008915",
        "label": "Un d\u00eda en el CEE San Germ\u00e1n",
        "link": "sAewXXnthSU",
        "type": "rec",
        "id": 52
    }, {
        "cpro": "_CONV",
        "claves": "Todo el centro",
        "centro": "22004104",
        "label": "Territorio de paz. Aprendiendo a convivir.",
        "link": "B7hHRVdsWVU",
        "type": "rec",
        "id": 53
    }, {
        "cpro": "LEPO",
        "claves": "Pole, ingl\u00e9s, eso, cartas teatro, m\u00fasica, oral, navidad",
        "centro": "50006761",
        "label": "POLE en ESO en ingl\u00e9s",
        "link": "suF_Z6l-0jQ",
        "type": "rec",
        "id": 54
    }, {
        "cpro": "LEPO",
        "claves": "",
        "centro": "50001799",
        "label": "POLE",
        "link": "yG5SBZeUyz4",
        "type": "rec",
        "id": 55
    }, {
        "cpro": "LEPO",
        "claves": "",
        "centro": "50001799",
        "label": "POLE",
        "link": "gPX7uh-HBJc",
        "type": "rec",
        "id": 56
    }, {
        "cpro": "LEAB",
        "claves": "learn, english, moncayo",
        "centro": "50011100",
        "label": "Why do we want to learn english?",
        "link": "SbvfXDTFgK8",
        "type": "rec",
        "id": 57
    }, {
        "cpro": "LEAB",
        "claves": "learn, english, moncayo",
        "centro": "50011100",
        "label": "Our projects about animals",
        "link": "Gdivn5QPGng",
        "type": "rec",
        "id": 58
    }, {
        "cpro": "LEAB",
        "claves": "biling\u00fcismo, CILE, ",
        "centro": "50004031",
        "label": "Nos gusta hablar ingl\u00e9s",
        "link": "_FwDxT9WUuQ",
        "type": "rec",
        "id": 59
    }, {
        "cpro": "LEPO",
        "claves": "SALESIANOS, POLE,\n IDIOMAS",
        "centro": "50000412",
        "label": "ADVANCING TOWARDS THE FUTURE",
        "link": "Ph_l491DLbs",
        "type": "rec",
        "id": 60
    }, {
        "cpro": "LEAB",
        "claves": "",
        "centro": "50007856",
        "label": "Biling\u00fcismo CILE",
        "link": "MBE655FjOq4",
        "type": "rec",
        "id": 61
    }, {
        "cpro": "LEAB",
        "claves": "english, metodolog\u00eda, ingl\u00e9s, primaria, tics, ipad, daily routine, AMCO, apps.",
        "centro": "50007248",
        "label": "One day in the English Class!",
        "link": "JkZ_BLD4ppQ",
        "type": "rec",
        "id": 62
    }, {
        "cpro": "LEAB",
        "claves": "ingl\u00e9s, pl\u00e1stica, CILE",
        "centro": "22000721",
        "label": "\u00c1rea de pl\u00e1stica en ingl\u00e9s",
        "link": "TAE0BsEQyFQ",
        "type": "rec",
        "id": 63
    }, {
        "cpro": "LEAB",
        "claves": "biling\u00fcismo, CILE, ",
        "centro": "50004031",
        "label": "Nos divertimos con el ingl\u00e9s",
        "link": "cvVMJRFJrmc",
        "type": "rec",
        "id": 64
    }, {
        "cpro": "LEAB",
        "claves": "ingl\u00e9s, cile 1, Primaria",
        "centro": "50011847",
        "label": "Video Ingl\u00e9s, cile 1 . 1\u00ba Primaria",
        "link": "OgnxfkPi-fI",
        "type": "rec",
        "id": 65
    }, {
        "cpro": "LEAB",
        "claves": "biling\u00fcismo, CILE, franc\u00e9s",
        "centro": "22004906",
        "label": "PROGRAMA BILING\u00dcE. CILE 2",
        "link": "Gtbhx4ectT8",
        "type": "rec",
        "id": 66
    }, {
        "cpro": "LEAB, _CIEN",
        "claves": "Importa el tama\u00f1o, predicciones, volumen, masa, sciences, matter.",
        "centro": "22002673",
        "label": "Does size matter? \u00bfImporta el tama\u00f1o?",
        "link": "RdO_ez8REx4",
        "type": "rec",
        "id": 67
    }, {
        "cpro": "LEPO",
        "claves": "clave: POLE, CEIP San Miguel,  intercambios escolares, video",
        "centro": "44002221",
        "label": "desarrollo programa POLE en el CEIP San Miguel",
        "link": "0xoa_8U6cJg",
        "type": "rec",
        "id": 68
    }, {
        "cpro": "LEAB",
        "claves": "Sorolla",
        "centro": "50009397",
        "label": "Proyecto Sorolla en 2\u00ba primaria",
        "link": "4FKc85bkBzk",
        "type": "rec",
        "id": 69
    }, {
        "cpro": "LEAB",
        "claves": "Biling\u00fc\u00edsmo, Franc\u00e9s, Ingl\u00e9s",
        "centro": "50010302",
        "label": "PIBLEA en el  GC",
        "link": "VV0emVh9mgY",
        "type": "rec",
        "id": 70
    }, {
        "cpro": "LEAB",
        "claves": "Biling\u00fcismo, Alfind\u00e9n",
        "centro": "50005793",
        "label": "Hands on Through English",
        "link": "fdm_7x3gWfc",
        "type": "rec",
        "id": 71
    }, {
        "cpro": "LEAB",
        "claves": "Biling\u00fcismo",
        "centro": "50004031",
        "label": "Fernando el Cat\u00f3lico Happy",
        "link": "Q_Txe_bjf-0",
        "type": "rec",
        "id": 72
    }, {
        "cpro": "LEAB",
        "claves": "Biling\u00fcismo, qu\u00edmica, ciencias de la naturaleza, materia, \u00e1tomos, mol\u00e9culas, cristales, tabla  peri\u00f3dica, educaci\u00f3n secundaria, Sagrado Coraz\u00f3n-Moncayo",
        "centro": "50011100",
        "label": "Structure of matter",
        "link": "OCLqniGRcbA",
        "type": "rec",
        "id": 73
    }, {
        "cpro": "PRDC",
        "claves": "capacidades, biblioteca",
        "centro": "50006888",
        "label": "Rap de la biblioteca",
        "link": "mTz0VT7zUHs",
        "type": "rec",
        "id": 74
    }, {
        "cpro": "PRDC",
        "claves": "capacidades, inclusividad, atenci\u00f3n a la diversidad",
        "centro": "22004104",
        "label": "Aula de desarrollo de capacidades",
        "link": "zPaIXwucvR4",
        "type": "rec",
        "id": 75
    }, {
        "cpro": "_NTEC",
        "claves": "",
        "centro": "50017904",
        "label": "Tabletas en infantil",
        "link": "tMjyMDSm8Jc",
        "type": "rec",
        "id": 76
    }, {
        "cpro": "IEDC",
        "claves": "Cine, alfabetizaci\u00f3n audiovisual,",
        "centro": "50010302",
        "label": "Un d\u00eda de cine con los  alumnos del GC",
        "link": "8z43p75kTtE",
        "type": "rec",
        "id": 77
    }, {
        "cpro": "ACCV",
        "claves": "Ciencia, divulgaci\u00f3n cient\u00edfica, educaci\u00f3n",
        "centro": "50010302",
        "label": "Ciencia Viva",
        "link": "Dyt5mqc62hg",
        "type": "rec",
        "id": 78
    }, {
        "cpro": "ALCE",
        "claves": "M\u00fasica, coros escolares.",
        "centro": "50010302",
        "label": "Coro en el GC",
        "link": "2uvGJhD-QAI",
        "type": "rec",
        "id": 79
    }, {
        "cpro": "IEPR",
        "claves": "LENGUA INGLESA, MUSICA, BIBLIOTECA,PLAN LECTOR, BILING\u00dcE",
        "centro": "50005926",
        "label": "Singing a Story",
        "link": "QS-LZOSOUm4",
        "type": "rec",
        "id": 80
    }, {
        "cpro": "_DIV",
        "claves": "CONVIVENCIA, C\u00c1NDIDO DOMINGO,  PREMIO CONVIVENCIA",
        "centro": "50005926",
        "label": "8 MESES 8 CAUSAS",
        "link": "FU8IeHmoSg4",
        "type": "rec",
        "id": 81
    }, {
        "cpro": "IEPR",
        "claves": "",
        "centro": "22005728",
        "label": "LA MISI\u00d3N DE LA PAJARITA",
        "link": "k7DlrEBzRso",
        "type": "rec",
        "id": 82
    }, {
        "cpro": "",
        "claves": "SALESIANOS,\n YDHEA, IDEA, YPD",
        "centro": "50000412",
        "label": "PROYECTO YDHEA Salesianos",
        "link": "wyPykXmA2p8",
        "type": "rec",
        "id": 83
    }, {
        "cpro": "",
        "claves": "",
        "centro": "44004239",
        "label": "Metodolog\u00eda del aprendizaje servicio",
        "link": "9g0Xlmgcy4I",
        "type": "rec",
        "id": 84
    }, {
        "cpro": "No autorizado?",
        "claves": "FORESTAL, ESCUELA,\n\nEJEA, FPB, CFGM, CFGS",
        "centro": "50001829",
        "label": "IM\u00c1GENES DE BOALARES",
        "link": "3AQuwUEY0M0",
        "type": "rec",
        "id": 85
    }, {
        "cpro": "",
        "claves": "",
        "centro": "50003863",
        "label": "QUE ES UNA EFA. EFA LA NORIA",
        "link": "eLqHNphzvSM",
        "type": "rec",
        "id": 86
    }, {
        "cpro": "",
        "claves": "",
        "centro": "50003863",
        "label": "QUE ES UNA EFA. EFA LA NORIA",
        "link": "ELf-mY2RN7A",
        "type": "rec",
        "id": 87
    }, {
        "cpro": "",
        "claves": "",
        "centro": "50001349",
        "label": "Otra forma de entender el vino",
        "link": "ipLg-aGbSak",
        "type": "rec",
        "id": 88
    }, {
        "cpro": "",
        "claves": "",
        "centro": "22000779",
        "label": "Expertos en el aula",
        "link": "Zyk5gnj_VIk",
        "type": "rec",
        "id": 89
    }, {
        "cpro": "",
        "claves": "Fernando el Cat\u00f3lico, Grupos interactivos, Experiencias innovadoras",
        "centro": "50005963",
        "label": "TRABAJAMOS CON GRUPOS INTERACTIVOS",
        "link": "gRIEPq-f8mM",
        "type": "rec",
        "id": 90
    }, {
        "cpro": "",
        "claves": "Aula TEA",
        "centro": "50008952",
        "label": "Hacia la integraci\u00f3n del alumnado con espectro autista",
        "link": "5IQIUIOGrp0",
        "type": "rec",
        "id": 91
    }, {
        "cpro": "",
        "claves": "",
        "centro": "50001799",
        "label": "Cantania",
        "link": "GXRzkF_RiFM",
        "type": "rec",
        "id": 92
    }],
    "types": {
        "rec": {
            "pluralLabel": "recursos",
            "label": "recurso"
        }
    },
    "properties": {
        "cpro": {
            "valueType": "item",
            "label": "programa"
        },
        "centro": {
            "valueType": "item"}
    }
}
